…
``` r
fremont <- enr |>
  filter(is_district, subgroup == "total_enrollment", grade_level == "TOTAL",
         grepl("Fremont", district_name)) |>
  group_by(end_year) |>
  summarize(total = sum(n_students, na.rm = TRUE)) |>
  mutate(pct_change = round((total / lag(total) - 1) * 100, 1))

stopifnot(nrow(fremont) > 0)
fremont
```

    #> # A tibble: 25 x 3
    #>    end_year total pct_change
    #>       <int> <dbl>      <dbl>
    #>  1     2000  7273       NA
    #>  2     2001  6639       -8.7
    #>  3     2002  6504       -2.0
    #>  4     2003  6344       -2.5
    #>  5     2004  6299       -0.7
    #>  6     2005  6373        1.2
    #>  7     2006  6360       -0.2
    #>  8     2007  6280       -1.3
    #>  9     2008  6342        1.0
    #> 10     2009  6329       -0.2
    #> # ... 15 more rows
…
``` r
school_counts <- enr |>
  filter(is_school, subgroup == "total_enrollment", grade_level == "TOTAL") |>
  group_by(end_year) |>
  summarize(n_schools = n(), total_students = sum(n_students, na.rm = TRUE)) |>
  mutate(avg_size = round(total_students / n_schools))

stopifnot(nrow(school_counts) > 0)
school_counts
```

    #> # A tibble: 25 x 4
    #>    end_year n_schools total_students avg_size
    #>       <int>     <int>          <dbl>    <dbl>
    #>  1     2000       382          90065      236
    #>  2     2001       378          87897      233
    #>  3     2002       377          86116      228
    #>  4     2003       367          84739      231
    #>  5     2004       361          83772      232
    #>  6     2005       362          83705      231
    #>  7     2006       359          84611      236
    #>  8     2007       354          85578      242
    #>  9     2008       347          86519      249
    #> 10     2009       349          87420      250
    #> # ... 15 more rows
…
``` r
k_vs_12 <- enr |>
  filter(is_state, subgroup == "total_enrollment", grade_level %in% c("K", "12")) |>
  select(end_year, grade_level, n_students) |>
  pivot_wider(names_from = grade_level, values_from = n_students)

stopifnot(nrow(k_vs_12) > 0)
k_vs_12
```

    #> # A tibble: 25 x 3
    #>    end_year     K  `12`
    #>       <int> <dbl> <dbl>
    #>  1     2000  5825  6851
    #>  2     2001  6002  6832
    #>  3     2002  6165  6582
    #>  4     2003  6224  6451
    #>  5     2004  6263  6272
    #>  6     2005  6381  6042
    #>  7     2006  6575  6146
    #>  8     2007  6891  6212
    #>  9     2008  7215  6093
    #> 10     2009  7422  6141
    #> # ... 15 more rows
…
